吧,ba,modal particle indicating suggestion or surmise,particle,
白,bái,white,adjective,color
百,bǎi,hundred,noun,number
帮助,bāng zhù,assistance,noun,
报纸,bào zhǐ,newspaper,noun,
比,bǐ,particle used for comparison and '-er than',particle,
别,bié,to leave,verb,movement
长,cháng,length,adjective,size
唱歌,chàng gē,to sing a song,verb,
出,chū,to go out,verb,movement
穿,chuān,to bore through,adjective,feeling
船,chuán,a boat,noun,transport
次,cì,next in sequence,
从,cóng,from,
错,cuò,mistake,noun,
打篮球,dá lán qiú,Play basketball,verb,sport
大家,dà jiā,everyone,
但是,dàn shì,but,adverb,
到,dào,to (a place),
得,de,structural particle used after a verb (or adjective as main verb),particle,
得,děi,to have to,
弟弟,dì di,younger brother,noun,person
第一,dì yī,first,,number,
懂,dǒng,to understand,verb,
房间,fáng jiān,room,noun,place
非常,fēi cháng,extraordinary/unusual,adjective,
服务员,fú wù yuán,waiter,noun,person
高,gāo,high/tall,adjective,size
告诉,gào su,to tell,verb,
哥哥,gē ge,older brother,noun,person
给,gěi,give/allow/to,verb,
公共汽车,gōng gòng qì chē,bus,noun,transport
公斤,gōng jīn,kilogram (kg),noun,weight
公司,gōng sī,(business) company,noun,place
贵,guì,expensive,adjective,money
还,hái,still,adverb,time
孩子,hái zi,child,noun,person
好吃,hǎo chī,tasty,adjective,food
号,hào,ordinal number,noun,number
黑,hēi,black,noun,colour
红,hóng,red,noun,colour
欢迎,huān yíng,to welcome,verb,
还,huán,to pay back,verb,money
回答,huí dá,to reply,verb,
机场,jī chǎng,airport,noun,place
鸡蛋,jī dàn,(chicken) egg,noun,food
件,jiàn,item,noun,object
教室,jiào shì,classroom,noun,place
姐姐,jiě jie,older sister,noun,person
介绍,jiè shào,to introduce (sb to sb),verb,people
进,jìn,to advance,verb,movement,
近,jìn,near,adjective,place
就,jiù,at once,adverb,
觉得,jué de,to think,verb,
咖啡,kā fēi,coffee,noun,food
开始,kāi shǐ,to begin,verb,
考试,kǎo shì,to take an exam,verb,
可能,kě néng,might (happen),adverb,
可以,kě yǐ,can,verb,
课,kè,subject,noun,
快,kuài,rapid,adjective,speed
快乐,kuài lè,happy,adjective,state
累,lèi,tired,adjective,state
离,lí,to leave,verb,movement
两,liǎng,both,noun,number
路,lù,road,noun,place
旅游,lǚ yóu,trip,noun,movement
卖,mài,to sell,verb,trade
慢,màn,slow,adjective,speed
忙,máng,busy,adjective,state
每,měi,each,adverb,number
妹妹,mèi mei,younger sister,noun,person
门,mén,gate,noun,
男人,nán rén,a man,
您,nín,you (courteous),noun,person
牛奶,niú nǎi,cow's milk,noun,food
女人,nǚ rén,woman,noun,person
旁边,páng biān,to the side,adverb,
跑步,pǎo bù,to walk quickly,verb,movement
便宜,pián yi,small advantages,noun,
票,piào,ticket,noun,travel
妻子,qī zi,wife,noun,person
起床,qǐ chuáng,to get out of bed,verb,day
千,qiān,thousand,noun,number
晴,qíng,clear,noun,
去年,qù nián,last year,noun,time
让,ràng,to allow/to give way,verb,
上班,shàng bān,to go to work,verb,day
身体,shēn tǐ,(human) body,noun,person
生病,shēng bìng,to fall ill,verb,state
生日,shēng rì,birthday,noun,date
时间,shí jiān,time,noun,time
事情,shì qing,matter/thing,noun,
手表,shǒu biǎo,wrist watch,noun,clothes
手机,shǒu jī,cell phone,noun,clothes
送,sòng,to deliver,verb,
所以,suǒ yǐ,therefore,adverb,
它,tā,it,noun,person
踢,tī,to kick,verb,sport
题,tí,topic,noun,
跳舞,tiào wǔ,to dance,verb,entertainmenet
外,wài,outside,noun,place
完,wán,to finish,verb,
玩,wán,toy,noun,entertainment
晚上,wǎn shang,evening,noun,time
为,wèi,variant of 為|为/do/act/become,verb,
问,wèn,to ask,verb,
问题,wèn tí,question,noun,talk
西瓜,xī guā,watermelon,noun,food
希望,xī wàng,to wish for,verb,
洗,xǐ,to wash,verb,day
向,xiàng,towards,adverb,place
小时,xiǎo shí,hour,noun,time
笑,xiào,laugh,verb,entertainment
新,xīn,new,adjective,state
姓,xìng,family name,noun,person
休息,xiū xi,rest,verb,day
雪,xuě,snow,noun,weather
颜色,yán sè,color,noun,color
眼睛,yǎn jing,eye,noun,body
羊肉,yáng ròu,mutton,noun,food
药,yào,medicine,noun,health
要,yào,important,adjective,
也,yě,also,adverb,
已经,yǐ jīng,already,adverb,time
一起,yī qǐ,in the same place,adjective,
意思,yì si,idea/interesting,noun/adjective,
阴,yīn,overcast (weather),noun,weather
因为,yīn wèi,because,adverb,
游泳,yóu yǒng,swimming,verb,sport
右边,yòu bian,right side,noun,place
鱼,yú,fish,noun,food
元,yuán,Chinese monetary unit,noun,money
远,yuǎn,far,adjective,place
运动,yùn dòng,to move/do sport,verb,sport
再,zài,again,adverb,number
早上,zǎo shang,early morning,noun,time
张,zhāng,to open up,verb,
长,zhǎng,elder/senior/chief,noun,person
丈夫,zhàng fu,husband,noun,person
找,zhǎo,to try to find,verb,
着,zhe,aspect particle indicating action in progress,particle,
真,zhēn,really,adverb,
正在,zhèng zài,in the process of (doing something or happening),adverb,time
知道,zhī dào,to know,verb,
准备,zhǔn bèi,prepare/get ready,noun,
自行车,zì xíng chē,bicycle,noun,transport
走,zǒu,to walk,verb,transport
最,zuì,most,adverb,
左边,zuǒ bian,left,noun,place
