阿姨,ā yí,maternal aunt,noun,person
啊,a,modal particle ending sentence,particle
矮,ǎi,low,adjective,place
爱好,ài hào,to like,verb,
安静,ān jìng,quiet,adjective,sound
把,bǎ,to hold,verb,
搬,bān,to move,verb,movement
班,bān,team,noun,person
半,bàn,half,noun,number
办法,bàn fǎ,means/method,noun,
办公室,bàn gōng shì,office,noun,place
帮忙,bāng máng,to help,verb,
包,bāo,to bundle/package,verb,
饱,bǎo,to eat till full,noun,food
北方,běi fāng,north,noun,place
被,bèi,quilt,noun,house
鼻子,bí zi,nose,noun,body
比较,bǐ jiào,to compare,verb,
比赛,bǐ sài,competition (sports etc),noun,sport
必须,bì xū,to have to,verb,
变化,biàn huà,change,noun,
表示,biǎo shì,to express,verb,
表演,biǎo yǎn,play,verb,entertainment
别人,bié ren,other people,noun,person
宾馆,bīn guǎn,guesthouse,noun,place
冰箱,bīng xiāng,icebox,noun,food
才,cái,a moment ago,adverb,time
菜单,cài dān,menu,noun,food
参加,cān jiā,to participate,verb,
草,cǎo,grass,noun,plant
层,céng,layer,noun,
差,chà,to differ from,verb,
超市,chāo shì,supermarket (abbr.),noun,place
衬衫,chèn shān,shirt,noun,clothes
成绩,chéng jì,achievement,noun,
城市,chéng shì,city,noun,place
迟到,chí dào,to arrive late,verb,time
出现,chū xiàn,to appear,verb,
除了,chú le,besides/in addition to/except,preposition,
厨房,chú fáng,kitchen,noun,place
春,chūn,spring (time),noun,weather
词语,cí yǔ,word (general term including monosyllables through to short phrases),noun,
聪明,cōng ming,acute (of sight and hearing),noun,degree
打扫,dǎ sǎo,to clean,verb,
打算,dǎ suàn,to plan,verb
带,dài,band,noun,person/entertainment
担心,dān xīn,anxious,adjective,state
蛋糕,dàn gāo,cake,noun,food
当然,dāng rán,only natural,adjective,
地,de,-ly,,degree
灯,dēng,lamp,noun,house
低,dī,low,adjective,place
地方,dì fang,area,noun,place
地铁,dì tiě,subway,noun,transport
地图,dì tú,map,noun,place
电梯,diàn tī,elevator,noun,transport
电子,diàn zǐ,electronic,noun,
冬,dōng,sound of beating a drum,noun,sound
东,dōng,east,noun,place
动物,dòng wù,animal,noun,animal
短,duǎn,short or brief,noun,size/time
段,duàn,paragraph,noun,
锻炼,duàn liàn,to engage in physical exercise,verb,sport
多么,duō me,how (wonderful etc),preposition,degree
饿,è,to be hungry,adjective,state
而且,ér qiě,(not only ...) but also,preposition,
耳朵,ěr duo,ear,noun,body
发烧,fā shāo,to have a high temperature (from illness),verb,health
发现,fā xiàn,to find,verb,
方便,fāng biàn,convenient,adjective,
放,fàng,to release,verb,
放心,fàng xīn,to feel relieved,adjective,
分,fēn,to divide,noun/verb,
附近,fù jìn,(in the) vicinity,adjective,place
复习,fù xí,variant of 復習|复习,
干净,gān jìng,clean,adjective,
敢,gǎn,to dare,verb,
感冒,gǎn mào,to catch cold,verb,health
刚才,gāng cái,(just) a moment ago,adverb,time
根据,gēn jù,according to,,
跟,gēn,heel,noun,body
更,gèng,more,adverb,size
公园,gōng yuán,public park,noun,place
故事,gù shi,narrative,noun,
刮,guā,to blow (of the wind),verb,weather
关,guān,mountain pass/guarded passage,noun,place
关系,guān xì,variant of 關係|关系[guān xì],
关心,guān xīn,to care for sth,verb,
关于,guān yú,pertaining to,
国家,guó jiā,country,noun,place
果汁,guǒ zhī,fruit juice,noun,food
过去,guò qu,(in the) past,adverb,time
还是,hái shi,or,preposition,
害怕,hài pà,to be afraid,verb,
河,hé,river,noun,place
黑板,hēi bǎn,blackboard,noun,
护照,hù zhào,passport,noun,travel
花,huā,flower,noun,nature
花园,huā yuán,garden,noun,place/nature,
画,huà,to draw,verb,entertainment
坏,huài,bad,adjective,
环境,huán jìng,environment,noun,place
换,huàn,to change,verb,
黄,huáng,yellow,noun,colour
会议,huì yì,meeting,noun,person
或者,huò zhě,or,preposition,
机会,jī huì,opportunity,noun,
几乎,jī hū,almost,adverb,degree
极,jí,extremely,adjective,degree
记得,jì de,to remember,verb,
季节,jì jié,time,noun,time
检查,jiǎn chá,inspection,noun,
简单,jiǎn dān,simple,adjective,
见面,jiàn miàn,to meet,verb,
健康,jiàn kāng,health,noun,health
讲,jiǎng,to speak,verb,
教,jiāo,to teach,verb,
脚,jiǎo,foot,noun,body
角,jiǎo,angle,noun,place
接,jiē,to receive,verb,
街道,jiē dào,street,noun,place
节目,jié mù,program,noun,
节日,jié rì,holiday,noun,time
结婚,jié hūn,to marry,verb,person
结束,jié shù,termination,noun,
解决,jiě jué,to settle (a dispute),verb,
借,jiè,to lend,verb,
经常,jīng cháng,day to day,,time
经过,jīng guò,to pass,verb,
经理,jīng lǐ,manager,noun,person
久,jiǔ,(long) time,adjective,time
旧,jiù,old,adjective,time
举行,jǔ xíng,to hold (a meeting),verb,
句子,jù zi,sentence,noun,
决定,jué dìng,to decide (to do something),verb,
渴,kě,thirsty,adverb,food
可爱,kě ài,adorable,adjective,
刻,kè,quarter (hour),noun,time
客人,kè rén,visitor,noun,person
空调,kōng tiáo,air conditioning,noun,house
口,kǒu,mouth,noun,body
哭,kū,to cry,verb,
裤子,kù zi,trousers,noun,clothes
筷子,kuài zi,chopsticks,noun,food
蓝,lán,blue,noun,colour
老,lǎo,old,adjective,time/person
离开,lí kāi,to depart,verb,
礼物,lǐ wù,gift,noun,
历史,lì shǐ,history,noun,time
脸,liǎn,face,noun,body
练习,liàn xí,exercise,noun,learning
辆,liàng,classifier for vehicles,particle,transport
了解,liǎo jiě,to understand,verb,learn
邻居,lín jū,neighbor,noun,person
楼,lóu,house with more than 1 story,noun,place
绿,lǜ,green,noun,colour
马,mǎ,horse,noun,animal
马上,mǎ shàng,at once,adverb,time
满意,mǎn yì,satisfied,adjective,
帽子,mào zi,hat,noun,clothes
米,mǐ,rice,noun,food
面包,miàn bāo,bread,noun,bread
面条,miàn tiáo,noodles,noun,food
明白,míng bai,clear,noun,colour
拿,ná,to hold,verb,
奶奶,nǎi nai,(informal) grandma (paternal grandmother),noun,person
南,nán,south,noun,place
难,nán,difficult (to...),adjective,degree
难过,nán guò,to feel sad,verb,
年级,nián jí,grade,noun,
年轻,nián qīng,young,adjective,person
鸟,niǎo,bird,noun,animal
努力,nǔ lì,great effort,noun,effort
爬山,pá shān,to climb a mountain,verb,nature/sport
盘子,pán zi,tray,noun,food
胖,pàng,fat,adjective,person
啤酒,pí jiǔ,beer,noun,food
葡萄,pú tao,grape,noun,food
普通话,pǔ tōng huà,Mandarin (common language),noun,language
骑,qí,to ride (an animal or bike),verb,transport/animal
其实,qí shí,actually,adverb,
其他,qí tā,other,noun,person/thing
奇怪,qí guài,strange,adjective,
铅笔,qiān bǐ,(lead) pencil,noun,learning
清楚,qīng chu,clear,adjective,
秋,qiū,a swing,noun,place
裙子,qún zi,skirt,noun,clothes
然后,rán hòu,after,adverb,time
热情,rè qíng,cordial,adjective,polite
认为,rèn wéi,to believe,verb,
认真,rèn zhēn,conscientious,adjective,
容易,róng yì,easy,adjective,degree
如果,rú guǒ,if,preposition,possibility
伞,sǎn,umbrella,noun,weather/clothes
上网,shàng wǎng,to be on the internet,verb,entertainment
生气,shēng qì,angry,adjective,mood
声音,shēng yīn,voice,noun,body
使,shǐ,to make,verb,
世界,shì jiè,world,noun,place
瘦,shòu,thin,adjective,body
舒服,shū fu,comfortable,adjective,
叔叔,shū shu,father's younger brother,noun,person
树,shù,tree,noun,nature
数学,shù xué,mathematics,noun,school
刷,shuā,to brush,verb,
双,shuāng,two,noun,number
水平,shuǐ píng,level (of achievement etc),noun,degree
司机,sī jī,chauffeur,noun,person
虽然,suī rán,although,preposition,opposition
太阳,tài yáng,sun,noun,nature
糖,táng,sugar,noun,food
特别,tè bié,especially,adverb,
疼,téng,(it) hurts,verb,health/body
提高,tí gāo,to raise,verb,size
体育,tǐ yù,sports,noun,sports
甜,tián,sweet,adjective,food
条,tiáo,strip,noun,
同事,tóng shì,colleague,noun,person
同意,tóng yì,to agree,verb,
头发,tóu fa,hair (on the head),noun,body
突然,tū rán,sudden,adverb,
图书馆,tú shū guǎn,library,noun,place
腿,tuǐ,leg,noun,body
完成,wán chéng,to complete,noun
碗,wǎn,bowl,noun,food
万,wàn,ten thousand,noun,number
忘记,wàng jì,to forget,verb,
为了,wèi le,in order to,adverb,
为什么,wèi shén me,why?,preposition,question
位,wèi,position,noun,place
文化,wén huà,culture,noun,entertainment/culture
西,xī,west,noun,place
习惯,xí guàn,habit,noun,day
洗手间,xǐ shǒu jiān,toilet,noun,house
洗澡,xǐ zǎo,to bathe,verb,day
夏,xià,summer,noun,weather
先,xiān,early,adverb,time
香蕉,xiāng jiāo,banana,noun,food
相同,xiāng tóng,identical,adjective,
相信,xiāng xìn,to be convinced (that sth is true),,
像,xiàng,to resemble,verb,
小心,xiǎo xīn,to be careful,verb,
校长,xiào zhǎng,college,noun,school
鞋,xié,shoe,noun,clothes
新闻,xīn wén,news,noun,
新鲜,xīn xiān,fresh (experience),noun,day
信,xìn,letter,noun,school
行李箱,xíng li xiāng,suitcase,noun,travel/clothes
兴趣,xìng qù,interest (desire to know about sth),adverb,
熊猫,xióng māo,panda,noun,animal
需要,xū yào,to need,verb,
选择,xuǎn zé,to select,verb
眼镜,yǎn jìng,spectacles,noun,clothes
要求,yāo qiú,to request,verb,
爷爷,yé ye,(informal) father's father,noun,person
一定,yī dìng,surely,adverb,degree
一共,yī gòng,altogether,adverb,
一会儿,yī huì r,a while,adverb,time
一样,yī yàng,same,adjective,
以后,yǐ hòu,after,adverb,time
以前,yǐ qián,before,adverb,time
以为,yǐ wéi,to believe,verb
一般,yī bān,same,adverb,
一边,yī biān,one side,adverb,place
一直,yī zhí,straight (in a straight line),adverb,place
音乐,yīn yuè,music,noun,entertainment
银行,yín háng,bank,noun,place
应该,yīng gāi,ought to,adverb,
影响,yǐng xiǎng,an influence,noun,
用,yòng,to use,verb,
游戏,yóu xì,game,noun,entertainment
有名,yǒu míng,famous,adjective,person
又,yòu,(once) again,adverb,time
遇到,yù dào,to meet,verb,
愿意,yuàn yì,to wish,verb,
越,yuè,to exceed,adverb,amount
月亮,yuè liang,moon,noun,place
云,yún,cloud,noun,weather
站,zhàn,station,noun,transport/place
着急,zháo jí,to worry,verb,
照顾,zhào gu,to take care of,verb,
照片,zhào piàn,photograph,noun,
照相机,zhào xiàng jī,camera,noun,
只,zhī,classifier for birds and certain animals,classifier,animals
只,zhǐ,but,preposition,opposition
终于,zhōng yú,at last,adverb,time
中间,zhōng jiān,between,adjective,
种,zhǒng,abbr. for 物種|物种,,
重要,zhòng yào,important,adjective,degree
周末,zhōu mò,weekend,noun,time
主要,zhǔ yào,main,noun,
祝,zhù,to wish,verb,
注意,zhù yì,to take note of,verb,
字典,zì diǎn,dictionary,noun,school
自己,zì jǐ,oneself,noun,person
总是,zǒng shì,always,adjective,time
最近,zuì jìn,recently/soon/nearest,noun/adjective,place/time
作业,zuò yè,school assignment,noun,school
作用,zuò yòng,to act on,verb,
